{
	
	"applicationName":"EasyTreatyApp",
	"applicationId":"com.EasyTreatyApp",
	"versionString":"1.0",
	"versionCode":"1",
	"icon":{
		"36":"resources/icons/Icon_Android36.png",
		"48":"resources/icons/Icon_Android48.png",
		"57":"resources/icons/Icon.png",
		"72":"resources/icons/Icon~ipad.png",
		"114":"resources/icons/Icon@2x.png",
		"144":"resources/icons/Icon~ipad@2x.png"
	},

	"inputPath":"./",
	/*"outputPath":"../build/",*/
	"outputPath":"../EasyTreaty/packages/android/",
	"configuration":"Debug",
	/**
	 * @cfg  platform
	 * @required
	 * This is the platform where you will be running your application. Available options are:
	 *  - iOSSimulator
	 *  - iOS
	 *  - Android
	 *  - AndroidEmulator
	 */
	"platform":"Android",
	"certificateAlias":"android1",
	"certificatePassword":"android1",
	"sdkPath":"C:/Users/Fincyka/Documents/Amaya/Development/adt-bundle-windows-x86_64-20131030/sdk",
	"androidAPILevel":"17",
	"permissions":[
            "INTERNET",
            "ACCESS_NETWORK_STATE",
            "CAMERA",
            "VIBRATE",
            "ACCESS_FINE_LOCATION",
            "ACCESS_COARSE_LOCATION",
            "CALL_PHONE"
        ],
	"orientations": [
		"portrait",
		"landscapeLeft",
		"landscapeRight",
		"portraitUpsideDown"
	]
}
